storethat • storethat
…
For a broader perspective use:

db_snapshot(file = storethat, instrument = "equity", book = "market")
#> # A tibble: 40 x 4
#>    ticker        field       start      end       
#>    <chr>         <chr>       <chr>      <chr>     
#>  1 BP/ LN Equity PX_OPEN     2000-01-04 2018-09-28
#>  2 BP/ LN Equity PX_HIGH     2000-01-04 2018-09-28
#>  3 BP/ LN Equity PX_LOW      2000-01-04 2018-09-28
#>  4 BP/ LN Equity PX_LAST     2000-01-04 2018-09-28
#>  5 BP/ LN Equity PX_VOLUME   2000-01-04 2018-09-28
#>  6 BP/ LN Equity PX_BID      2000-01-04 2018-09-28
#>  7 BP/ LN Equity PX_ASK      2000-01-04 2018-09-28
#>  8 BP/ LN Equity PX_MID      2000-01-04 2018-09-28
#>  9 BP/ LN Equity EQY_SH_OUT  2000-01-04 2018-09-28
#> 10 BP/ LN Equity CUR_MKT_CAP 2000-01-04 2018-09-28
#> # … with 30 more rows
…
